1 1 1
1 999999 525
418 251 144
230 657 145
889 169 179
25 128 119
4387 1190 238
8080 5343 262
2574 2325 209
6859 5375 262
5281 7866 262
3869 2273 238
7290 3931 262
2729 2126 209
319 4470 238
5993 6958 262
8394 9333 260
5681 8728 262
857 3232 217
9174 816 262
7837 6879 257
2986 9114 262
4458 9806 262
4996 5770 236
5400 2015 238
540 7206 262
4296 6249 262
8399 3300 262
2588 7249 262
7863 8299 252
7002 7614 239
5299 1741 238
5148 6042 236
7172 6387 257
1071 4548 238
1413 193 182
7879 5945 262
9296 6318 260
1976 9967 262
9260 8928 260
9094 559 262
4161 8210 262
5694 5963 218
9429 2749 262
4823 7657 262
8756 2167 262
2548 7801 262
7779 9267 260
2624 4884 238
1127 3537 217
6670 1356 262
1396 3630 217
3173 7977 262
1858 6120 238
7532 8212 252
5688 6522 262
5909 124 238
7843 3932 262
884 9043 262
6195 6135 262
7424 8565 252
6521 7017 257
929 3395 217
4081 901 238
4871 6647 262
6274 1308 262
7765 417 262
3363 7728 262
5875 510 238
7478 5618 262
2974 4279 238
245 454 144
3480 8310 262
5423 4658 210
5311 7115 262
8188 6118 262
4288 2021 238
134 9189 262
7992 880 262
5039 916 238
7863 694 262
5501 8284 262
546 3752 238
329 2772 209
112 12 119
76 25 116
167 159 112
78 48 116
162 187 125
37 30 107
172 46 125
20 90 116
200 73 125
147 47 122
5 77 116
15 175 125
81 24 116
196 4 125
69 172 125
146 106 122
45 27 112
34 146 122
96 25 116
82 173 125
154 75 122
147 79 122
61 72 108
96 69 116
166 18 122
5348 8696 262
6656 7859 257
6446 483 262
8865 8090 234
4046 5440 215
4216 1493 238
7328 4227 262
9152 3911 262
9269 5033 262
4327 1866 238
7959 5221 262
8080 9090 247
3742 4648 215
7459 1665 262
5567 9103 262
4093 888 238
8372 367 262
